Picked up JAVA_TOOL_OPTIONS: -Xmx2g
Opening log file:  /tmp/java.log.36893

                            < M A T L A B (R) >
                  Copyright 1984-2021 The MathWorks, Inc.
             R2021a Update 5 (9.10.0.1739362) 64-bit (glnxa64)
                               August 9, 2021

 
To get started, type doc.
For product information, visit www.mathworks.com.
 
{Index exceeds the number of array elements (2).

Error in AoA_MultiP_ChannelSim>music_doa (line 432)
DOAs = sort(pk_locs(1:L),'descend');

Error in AoA_MultiP_ChannelSim (line 136)
                [AoA_music_deg] = music_doa(ymk_Sampled,N,L,plot_spec);} 
