Picked up JAVA_TOOL_OPTIONS: -Xmx2g
Opening log file:  /tmp/java.log.21867

                            < M A T L A B (R) >
                  Copyright 1984-2021 The MathWorks, Inc.
             R2021a Update 5 (9.10.0.1739362) 64-bit (glnxa64)
                               August 9, 2021

 
To get started, type doc.
For product information, visit www.mathworks.com.
 

fig = 

  Figure (1) with properties:

      Number: 1
        Name: ''
       Color: [0.9400 0.9400 0.9400]
    Position: [232 246 560 420]
       Units: 'pixels'

  Use GET to show all properties


pngfile =

    'snr_RMSE_Phi_Ant16_61462351'


pngfile =

    'snr_RMSE_dB_Chan_p1_61462351'


pngfile =

    'snr_RMSE_dB_Chan_p2_61462351'


pngfile =

    'snr_RMSE_dB_Chan_p3_61462351'

